MSDN Type,Equals to,,,,Visual Basic 9 Type
ATOM,WORD,unsigned short,unsigned short,unsigned short,UShort
BOOL,int,int,int,int,Integer
BOOLEAN,BYTE,unsigned char,unsigned char,unsigned char,Byte
BYTE,unsigned char,unsigned char,unsigned char,unsigned char,Byte
CALLBACK,__stdcall,__stdcall,__stdcall,__stdcall,Delegate
CHAR,char,char,char,char,SByte
COLORREF,DWORD,unsigned long,unsigned long,unsigned long,UInteger
CONST,const,const,const,const,Const
DWORD,unsigned long,unsigned long,unsigned long,unsigned long,UInteger
DWORDLONG,ULONGLONG,unsigned __int64,unsigned __int64,unsigned __int64,ULong
DWORD_PTR,ULONG_PTR,unsigned long (unsigned __int64),unsigned long (unsigned __int64),unsigned long (unsigned __int64),UInteger (ULong)
DWORD32,unsigned int,unsigned int,unsigned int,unsigned int,UInteger
DWORD64,__int64,__int64,__int64,__int64,Long
FLOAT,float,float,float,float,Single
HACCEL,HANDLE,PVOID,void *,void *,IntPtr
HALF_PTR,short (int),short (int),short (int),short (int),Short (Integer)
HANDLE,PVOID,void *,void *,void *,IntPtr
HBITMAP,HANDLE,PVOID,void *,void *,IntPtr
HBRUSH,HANDLE,PVOID,void *,void *,IntPtr
HCONV,HANDLE,PVOID,void *,void *,IntPtr
HCONVLIST,HANDLE,PVOID,void *,void *,IntPtr
HCURSOR,HICON,HANDLE,PVOID,void *,IntPtr
HDC,HANDLE,PVOID,void *,void *,IntPtr
HDDEDATA,HANDLE,PVOID,void *,void *,IntPtr
HDESK,HANDLE,PVOID,void *,void *,IntPtr
HDROP,HANDLE,PVOID,void *,void *,IntPtr
HDWP,HANDLE,PVOID,void *,void *,IntPtr
HENHMETAFILE,HANDLE,PVOID,void *,void *,IntPtr
HFILE,int,int,int,int,Integer
HFONT,HANDLE,PVOID,void *,void *,IntPtr
HGIDOBJ,HANDLE,PVOID,void *,void *,IntPtr
HGLOBAL,HANDLE,PVOID,void *,void *,IntPtr
HHOOK,HANDLE,PVOID,void *,void *,IntPtr
HICON,HANDLE,PVOID,void *,void *,IntPtr
HINSTANCE,HANDLE,PVOID,void *,void *,IntPtr
HKEY,HANDLE,PVOID,void *,void *,IntPtr
HKL,HANDLE,PVOID,void *,void *,IntPtr
HLOCAL,HANDLE,PVOID,void *,void *,IntPtr
HMENU,HANDLE,PVOID,void *,void *,IntPtr
HMETAFILE,HANDLE,PVOID,void *,void *,IntPtr
HMODULE,HINSTANCE,HANDLE,PVOID,void *,IntPtr
HMONITOR,HANDLE,PVOID,void *,void *,IntPtr
HPALETTE,HANDLE,PVOID,void *,void *,IntPtr
HPEN,HANDLE,PVOID,void *,void *,IntPtr
HRESULT,LONG,long,long,long,Integer
HRGN,HANDLE,PVOID,void *,void *,IntPtr
HRSRC,HANDLE,PVOID,void *,void *,IntPtr
HSZ,HANDLE,PVOID,void *,void *,IntPtr
HWINSTA,HANDLE,PVOID,void *,void *,IntPtr
HWND,HANDLE,PVOID,void *,void *,IntPtr
INT_PTR,int (__int64),int (__int64),int (__int64),int (__int64),Integer (Long)
INT32,signed int,signed int,signed int,signed int,Integer
INT64,signed __int64,signed __int64,signed __int64,signed __int64,Long
LANGID,WORD,unsigned short,unsigned short,unsigned short,UShort
LCID,DWORD,unsigned long,unsigned long,unsigned long,UInteger
LGRPID,DWORD,unsigned long,unsigned long,unsigned long,UInteger
LONG,long,long,long,long,Integer
LONGLONG,__int64,__int64,__int64,__int64,Long
LONG_PTR,long (__int64),long (__int64),long (__int64),long (__int64),Integer (Long)
LONG32,signed int,signed int,signed int,signed int,Integer
LONG64,__int64,__int64,__int64,__int64,Long
LPARAM,LONG_PTR,long (__int64),long (__int64),long (__int64),Integer (Long)
LPBOOL,BOOL far *,int far *,int far *,int far *,ByRef Integer
LPBYTE,BYTE far *,unsigned char far *,unsigned char far *,unsigned char far *,ByRef Byte
LPCOLORREF,DWORD *,unsigned long *,unsigned long *,unsigned long *,#N/A
LPCSTR,__nullterminated CONST CHAR *,__nullterminated const char *,__nullterminated const char *,__nullterminated const char *,ByRef SByte
LPCTSTR,LPCWSTR,CONST WCHAR *,const wchar_t *,const wchar_t *,ByRef Char
LPCWSTR,CONST WCHAR *,const wchar_t *,const wchar_t *,const wchar_t *,ByRef Char
LPDWORD,DWORD *,unsigned long *,unsigned long *,unsigned long *,#N/A
LPHANDLE,HANDLE *,PVOID *,void * *,void * *,ByRef IntPtr
LPINT,int *,int *,int *,int *,#N/A
LPLONG,long *,long *,long *,long *,#N/A
LPSTR,CHAR *,char *,char *,char *,ByRef SByte
LPTSTR,LPWSTR,WCHAR *,wchar_t *,wchar_t *,ByRef Char
LPVOID,void *,void *,void *,void *,IntPtr
LPWORD,WORD *,unsigned short *,unsigned short *,unsigned short *,#N/A
LPWSTR,WCHAR *,wchar_t *,wchar_t *,wchar_t *,ByRef Char
LRESULT,LONG_PTR,long (__int64),long (__int64),long (__int64),Integer (Long)
PBOOL,BOOL *,int *,int *,int *,#N/A
PBOOLEAN,BOOLEAN *,BYTE *,unsigned char *,unsigned char *,#N/A
PBYTE,BYTE *,unsigned char *,unsigned char *,unsigned char *,#N/A
PCHAR,CHAR *,char *,char *,char *,ByRef SByte
PCSTR,CONST CHAR *,const char *,const char *,const char *,ByRef SByte
PCTSTR,LPCWSTR,CONST WCHAR *,const wchar_t *,const wchar_t *,ByRef Char
PCWSTR,CONST WCHAR *,const wchar_t *,const wchar_t *,const wchar_t *,ByRef Char
PDWORD,DWORD *,unsigned long *,unsigned long *,unsigned long *,#N/A
PDWORDLONG,DWORDLONG *,ULONGLONG *,unsigned __int64 *,unsigned __int64 *,ByRef ULong
PDWORD_PTR,DWORD_PTR *,ULONG_PTR *,unsigned long (unsigned __int64) *,unsigned long (unsigned __int64) *,ByRef UInteger (ULong)
PDWORD32,DWORD32 *,unsigned int *,unsigned int *,unsigned int *,ByRef UInteger
PDWORD64,DWORD64 *,__int64 *,__int64 *,__int64 *,ByRef Long
PFLOAT,FLOAT *,float *,float *,float *,ByRef Single
PHALF_PTR,HALF_PTR *,short (int) *,short (int) *,short (int) *,ByRef Short (Integer)
PHANDLE,HANDLE *,PVOID *,void * *,void * *,ByRef IntPtr
PHKEY,HKEY *,HANDLE *,PVOID *,void * *,ByRef IntPtr
PINT,int *,int *,int *,int *,#N/A
PINT_PTR,INT_PTR *,int (__int64) *,int (__int64) *,int (__int64) *,ByRef Integer (Long)
PINT32,INT32 *,signed int *,signed int *,signed int *,ByRef Integer
PINT64,INT64 *,signed __int64 *,signed __int64 *,signed __int64 *,ByRef Long
PLCID,PDWORD,DWORD *,unsigned long *,unsigned long *,#N/A
PLONG,LONG *,long *,long *,long *,#N/A
PLONGLONG,LONGLONG *,__int64 *,__int64 *,__int64 *,ByRef Long
PLONG_PTR,LONG_PTR *,long (__int64) *,long (__int64) *,long (__int64) *,ByRef Integer (Long)
PLONG32,LONG32 *,signed int *,signed int *,signed int *,ByRef Integer
PLONG64,LONG64 *,__int64 *,__int64 *,__int64 *,ByRef Long
POINTER_32,(__ptr32),(__ptr32),(__ptr32),(__ptr32),(IntPtr)
POINTER_64,__ptr64,__ptr64,__ptr64,__ptr64,IntPtr
POINTER_SIGNED,__sptr,__sptr,__sptr,__sptr,IntPtr
POINTER_UNSIGNED,__uptr,__uptr,__uptr,__uptr,UIntPtr
PSHORT,SHORT *,short *,short *,short *,#N/A
PSIZE_T,SIZE_T *,ULONG_PTR *,unsigned long (unsigned __int64) *,unsigned long (unsigned __int64) *,ByRef UInteger (ULong)
PSSIZE_T,SSIZE_T *,LONG_PTR *,long (__int64) *,long (__int64) *,ByRef Integer (Long)
PSTR,CHAR *,char *,char *,char *,ByRef SByte
PTBYTE,TBYTE *,WCHAR *,wchar_t *,wchar_t *,ByRef Char
PTCHAR,TCHAR *,WCHAR *,wchar_t *,wchar_t *,ByRef Char
PTSTR,LPWSTR,WCHAR *,wchar_t *,wchar_t *,ByRef Char
PUCHAR,UCHAR *,unsigned char *,unsigned char *,unsigned char *,#N/A
PUHALF_PTR,UHALF_PTR *,unsigned short (unsigned int) *,unsigned short (unsigned int) *,unsigned short (unsigned int) *,ByRef UShort (UInteger)
PUINT,UINT *,unsigned int *,unsigned int *,unsigned int *,ByRef UInteger
PUINT_PTR,UINT_PTR *,unsigned int (unsigned __int64) *,unsigned int (unsigned __int64) *,unsigned int (unsigned __int64) *,ByRef UInteger (ULong)
PUINT32,UINT32 *,unsigned int *,unsigned int *,unsigned int *,ByRef UInteger
PUINT64,UINT64 *,unsigned __int64 *,unsigned __int64 *,unsigned __int64 *,ByRef ULong
PULONG,ULONG *,unsigned long *,unsigned long *,unsigned long *,#N/A
PULONGLONG,ULONGLONG *,unsigned __int64 *,unsigned __int64 *,unsigned __int64 *,ByRef ULong
PULONG_PTR,ULONG_PTR *,unsigned long (unsigned __int64) *,unsigned long (unsigned __int64) *,unsigned long (unsigned __int64) *,ByRef UInteger (ULong)
PULONG32,ULONG32 *,unsigned int *,unsigned int *,unsigned int *,ByRef UInteger
PULONG64,ULONG64 *,unsigned __int64 *,unsigned __int64 *,unsigned __int64 *,ByRef ULong
PUSHORT,USHORT *,unsigned short *,unsigned short *,unsigned short *,#N/A
PVOID,void *,void *,void *,void *,IntPtr
PWCHAR,WCHAR *,wchar_t *,wchar_t *,wchar_t *,ByRef Char
PWORD,WORD *,unsigned short *,unsigned short *,unsigned short *,#N/A
PWSTR,WCHAR *,wchar_t *,wchar_t *,wchar_t *,ByRef Char
SC_HANDLE,HANDLE,PVOID,void *,void *,IntPtr
SC_LOCK,LPVOID,void *,void *,void *,IntPtr
SERVICE_STATUS_HANDLE,HANDLE,PVOID,void *,void *,IntPtr
SHORT,short,short,short,short,Short
SIZE_T,ULONG_PTR,unsigned long (unsigned __int64),unsigned long (unsigned __int64),unsigned long (unsigned __int64),UInteger (ULong)
SSIZE_T,LONG_PTR,long (__int64),long (__int64),long (__int64),Integer (Long)
TBYTE,WCHAR,wchar_t,wchar_t,wchar_t,Char
TCHAR,WCHAR,wchar_t,wchar_t,wchar_t,Char
UCHAR,unsigned char,unsigned char,unsigned char,unsigned char,Byte
UHALF_PTR,unsigned short (unsigned int),unsigned short (unsigned int),unsigned short (unsigned int),unsigned short (unsigned int),UShort (UInteger)
UINT,unsigned int,unsigned int,unsigned int,unsigned int,UInteger
UINT_PTR,unsigned int (unsigned __int64),unsigned int (unsigned __int64),unsigned int (unsigned __int64),unsigned int (unsigned __int64),UInteger (ULong)
UINT32,unsigned int,unsigned int,unsigned int,unsigned int,UInteger
UINT64,unsigned __int64,unsigned __int64,unsigned __int64,unsigned __int64,ULong
ULONG,unsigned long,unsigned long,unsigned long,unsigned long,UInteger
ULONGLONG,unsigned __int64,unsigned __int64,unsigned __int64,unsigned __int64,ULong
ULONG_PTR,unsigned long (unsigned __int64),unsigned long (unsigned __int64),unsigned long (unsigned __int64),unsigned long (unsigned __int64),UInteger (ULong)
ULONG32,unsigned int,unsigned int,unsigned int,unsigned int,UInteger
ULONG64,unsigned __int64,unsigned __int64,unsigned __int64,unsigned __int64,ULong
UNICODE_STRING,struct {USHORT Lenght; USHORT MaximumLength; PWSTR Buffer;},struct {unsigned short Lenght; unsigned short MaximumLength; WCHAR * Buffer;},struct {unsigned short Lenght; unsigned short MaximumLength; wchar_t * Buffer;},struct {unsigned short Lenght; unsigned short MaximumLength; wchar_t * Buffer;},"Structure UNICODE_STRING : Dim Lenght As UShort, MaximumLenght As UShort, ByRef Buffer As Char : End Structure"
USHORT,unsigned short,unsigned short,unsigned short,unsigned short,UShort
USN,LONGLONG,__int64,__int64,__int64,Long
VOID,void,void,void,void,Object
WCHAR,wchar_t,wchar_t,wchar_t,wchar_t,Char
WIANPI,__stdcall,__stdcall,__stdcall,__stdcall,Delegate
WORD,unsigned short,unsigned short,unsigned short,unsigned short,UShort
WPARAM,UINT_PTR,unsigned int (unsigned __int64),unsigned int (unsigned __int64),unsigned int (unsigned __int64),UInteger (ULong)